^C:\USERS\ERICDENG\DESKTOP\NP_HW3\NP_HW3.CPP
/c /ZI /nologo /W3 /WX- /Od /Oy- /D WIN32 /D _DEBUG /D _CONSOLE /D _MBCS /Gm /EHsc /RTC1 /MTd /GS /fp:precise /Zc:wchar_t /Zc:forScope /Zc:inline /Fo"DEBUG\\" /Fd"DEBUG\VC140.PDB" /Gd /TP /analyze- C:\USERS\ERICDENG\DESKTOP\NP_HW3\NP_HW3.CPP
^C:\USERS\ERICDENG\DESKTOP\NP_PROJECT3_0456057\WINSOCK\NP_HW3.CPP
/c /ZI /nologo /W3 /WX- /Od /Oy- /D WIN32 /D _DEBUG /D _CONSOLE /D _MBCS /Gm /EHsc /RTC1 /MTd /GS /fp:precise /Zc:wchar_t /Zc:forScope /Zc:inline /Fo"DEBUG\\" /Fd"DEBUG\VC140.PDB" /Gd /TP /analyze- C:\USERS\ERICDENG\DESKTOP\NP_PROJECT3_0456057\WINSOCK\NP_HW3.CPP
^D:\NCTU\COURSE\NP\PROJECT3\NP_PROJECT3_0456057\WINSOCK\NP_HW3.CPP
/c /ZI /nologo /W3 /WX- /Od /Oy- /D WIN32 /D _DEBUG /D _CONSOLE /D _MBCS /Gm /EHsc /RTC1 /MTd /GS /fp:precise /Zc:wchar_t /Zc:forScope /Zc:inline /Fo"DEBUG\\" /Fd"DEBUG\VC140.PDB" /Gd /TP /analyze- D:\NCTU\COURSE\NP\PROJECT3\NP_PROJECT3_0456057\WINSOCK\NP_HW3.CPP
