^C:\USERS\ERICDENG\DESKTOP\NP_HW3\NP_HW3.RC
/l"0x0409" /nologo /fo"DEBUG\NP_HW3.RES"   C:\USERS\ERICDENG\DESKTOP\NP_HW3\NP_HW3.RC
^C:\USERS\ERICDENG\DESKTOP\NP_PROJECT3_0456057\WINSOCK\NP_HW3.RC
/l"0x0409" /nologo /fo"DEBUG\NP_HW3.RES"   C:\USERS\ERICDENG\DESKTOP\NP_PROJECT3_0456057\WINSOCK\NP_HW3.RC
^D:\NCTU\COURSE\NP\PROJECT3\NP_PROJECT3_0456057\WINSOCK\NP_HW3.RC
/l"0x0409" /nologo /fo"DEBUG\NP_HW3.RES"   D:\NCTU\COURSE\NP\PROJECT3\NP_PROJECT3_0456057\WINSOCK\NP_HW3.RC
